02-14 15:06:50.429: I/Lab-Fragments(771): Entered onActivityCreated()
02-14 15:06:55.159: I/Lab-Fragments(771): Entered onItemSelected(0)
02-14 15:06:57.068: I/Lab-Fragments(771): Entered updateFeedDisplay()
02-14 15:07:01.268: I/Lab-Fragments(771): Entered onActivityCreated()
02-14 15:07:03.368: I/Lab-Fragments(771): Entered onItemSelected(1)
02-14 15:07:03.438: I/Lab-Fragments(771): Entered updateFeedDisplay()
02-14 15:07:08.238: I/Lab-Fragments(771): Entered onActivityCreated()
02-14 15:07:09.918: I/Lab-Fragments(771): Entered onItemSelected(2)
02-14 15:07:09.969: I/Lab-Fragments(771): Entered updateFeedDisplay()
02-14 15:07:12.368: I/Lab-Fragments(771): Entered onActivityCreated()
02-14 15:07:41.439: I/Lab-Fragments(858): Entered onActivityCreated()
02-14 15:07:43.088: I/Lab-Fragments(858): Entered onItemSelected(0)
02-14 15:07:44.928: I/Lab-Fragments(858): Entered updateFeedDisplay()
02-14 15:07:47.518: I/Lab-Fragments(858): Entered onActivityCreated()
02-14 15:07:49.609: I/Lab-Fragments(858): Entered onItemSelected(1)
02-14 15:07:49.708: I/Lab-Fragments(858): Entered updateFeedDisplay()
02-14 15:07:52.878: I/Lab-Fragments(858): Entered onActivityCreated()
02-14 15:07:54.328: I/Lab-Fragments(858): Entered onItemSelected(2)
02-14 15:07:54.398: I/Lab-Fragments(858): Entered updateFeedDisplay()
