02-13 00:54:21.923: I/Lab-Permissions(1416): Entered startBookMarksActivity()
02-13 00:54:24.733: I/Lab-Permissions(1416): Entered loadBookmarks()
02-13 00:54:27.722: I/Lab-Permissions(1416): Bookmarks loaded

