02-10 14:57:26.437: I/Lab-Intents(1611): Entered startExplicitActivation()
02-10 14:57:29.697: I/Lab-Intents(1611): Entered enterClicked()
02-10 14:57:29.827: I/Lab-Intents(1611): Entered onActivityResult()
